id,name,description
125,Sulbactam,Sulbactam
124,Hidroxipropilmetilcelulosa,Hidroxipropilmetilcelulosa
123,Dextran 70,Dextran 70
122,Tiamina,Tiamina
121,Piridoxina,Piridoxina
120,Nicotinamida,Nicotinamida
119,Rivoflaxina,Rivoflaxina
118,Insulina,Insulina
117,Nitroglicerina,Nitroglicerina
116,Nittroprusiato IV,Nitroprusiato IV
115,Clonidina,Clonidina
114,Captopril,Captopril
113,Enoxaparina,Enoxaparina
112,Clopidogrel,Clopidogrel
111,Ácido Acetilsalicílico,Ácido Acetilsalicílico
110,Heparina Sódica,Heparina Sódica
109,Ibatropio,Ibatropio
108,Nimodipina,Nimodipina
107,Tramadol,Tramadol
106,Verapamil,Verapamil
105,Amiodarona,Amiodarona
104,Noradrenalina,Noradrenalina
103,Dopamina,Dopamina
102,Digoxina,Digoxina
101,Atenolol,Atenolol
100,Midazolam,Midazolam
99,Vancomicina,Vancomicina
98,Clindamicina,Clindamicina
97,Moxifloxacina,Moxifloxacina
96,Meropenem,Meropenem
95,Ceftriaxone,Ceftriaxone
94,Amikacina,Amikacina
93,Fenitoina,Fenitoina
92,Diazepan,Diazepan
91,Methergin,Methergin
90,Oxitocina,Oxitocina
89,Lidocaína,Lidocaína
88,Propofol,Propofol
87,Furosemida,Furosemida
86,Clorferinamina,Clorferinamina
85,Atropina,Atropina
84,Adrenalina,Adrenalina
83,Metilprednisona,Metilprednisona
82,Bromuro De Hiosh,Bromuro De Hiosh
81,Vitamina C,Vitamina C
80,Sulfametoxazol,Sulfametoxazol
79,Trimetropin,Trimetropin
78,Tobramicina,Tobramicina
77,Sultamicina,Sultamicina
76,Sulfadiacina De Plata,Sulfadiacina De Plata
75,Secnidazol,Secnidazol
74,Sales de Rehidratación,Sales de Rehidratación
73,Salbutamol,Salbutamol
72,Maleato De Clorfenamina,Maleato De Clorfenamina
71,Sulfato De Kanamicina,Sulfato De Kanamicina
70,Agua Purificada,Agua Purificada
69,Cloruro de Sodio,Cloruro de Sodio
68,Ranitidina,Ranitidina
67,Polimixina,Polimixina
66,Sulfato De Neomicina,Sulfato De Neomicina
65,Pantoprazol,Pantoprazol
64,Polimixina B,Polimixina B
63,Antipirina,Antipirina
62,Tirotricina,Tirotricina
61,Olopatadina,Olopatadina
60,Omeprazol,Omeprazol
59,Prednisona,Prednisona
58,Nitrofurantoína,Nitrofurantoína
57,Nitazoxanida,Nitazoxanida
56,Mupirocina,Mupirocina
55,Moxifloxacino,Moxifloxacino
54,Metronidazol Benzoil,Metronidazol Benzoil
53,Metronidazol,Metronidazol
52,Metoclopramida,Metoclopramida
51,Meloxicam,Meloxicam
50,Loratadina,Loratanida
49,Loperamida,Loperamida
48,Cefixima,Cefixima
47,Lactobacillus Rhamnosus,Lactobacillus Rhamnosus
46,Levofloxacina,Levofloxacina
45,Hidroxipropilmetilcelulosa,Hidroxipropilmetilcelulosa
43,Ketorolac,Ketorolac
42,Ketoprofeno,Ketoprofeno
41,Ketoconazol,Ketoconazol
40,Bromuro De Ipratropio,Bromuro De Ipratropio
39,Tiocolchicosido,Tiocolchicosido
38,Hidrocortisona,Hidrocortisona
37,Fluconazol,Fluconazol
36,Saccharomyces Boulardii,Saccharomyces Boulardii
35,Flavoxato,Flavoxato
34,Fexofenadina,Fexofenadina
33,Esomeprazol,Esomeprazol
32,Diclofenac Sódico,Diclofenac Sódico
31,Diclofenac Potásico,Diclofenac Potásico
30,Diclofenac,Diclofenac
29,Neomicina,Neomicina
28,Dexametasona,Dexametasona
27,Desloratadina,Desloratadina
25,Clotrimazol,Clotrimazol
24,Nafazolina Clohidrato,Nafazolina Clohidrato
23,Ciprofloxacina,Ciprofloxacina
22,Cetirizina,Cetirizina
21,Cefixima,Cefixima
20,Cefalexina,Cefalexina
19,Cefadroxilo,Cefadroxilo
18,Budesonida,Budesonida
17,Bromuro De Ipratropio,Bromuro De Ipratropio
16,Bromuro De Hioscina,Bromuro De Hioscina
15,Bromexina,Bromexina
14,Betahistina Diclorhidrato,Betahistina Diclorhidrato
13,Gentamicina,Gentamicina
12,Betametasona,Betametasona
11,Bacitracina,Bacitracina
10,Azitromicina,Azitromicina
9,Ampicilina,Ampicilina
8,Ácido clavulánico,Ácido clavulánico
7,Amoxicilina,amoxicilina
6,Ambroxol,Ambroxol
5,Albendazol,albendazol
4,Aciclovir,aciclovir
2,Ibuprofeno,"Antiinflamatorio no esteroideo (AINE), utilizado frecuentemente como antipirético, analgésico y antiinflamatorio."
1,Acetaminofén,"El paracetamol (DCI), también conocido como acetaminofén o acetaminofeno, es un fármaco con propiedades analgésicas y antipiréticas utilizado principalmente para tratar la fiebre, y el dolor leve y moderado."
