id,name,code
33,Caso duplicado,0033
32,No se estableció contacto en 24 horas,0032
31,Se superan las 24 horas,0031
30,Solicitud cancelada por paciente,0030
29,Documentación sin firma y/o sello medico,0029
28,Documentación sin datos del paciente,0028
27,Documentación sin fecha,0027
26,Medicamentos cubiertos en últimos dos meses,0026
25,No cuenta con el servicio,0025
24,Medicamentos no están en el condicionado,0024
23,Patología cubierta en últimos dos meses,0023
22,Documentación Extemporánea,0022
21,Tratamiento Crónico,0021
20,Zona Dificil Acceso (No Quiere Punto Encuentro),0005
19,Usuario No Se Encuentra En En Lugar De La Atencion,0019
18,Usuario No Activo,0012
17,Traslado Por Propios Medios (>60 Min),0004
16,Traslado Por Propios Medios (<60 Min),0003
15,Tipo De Solicitud No Cubierta,0006
14,Sin Signos Vitales,0013
13,Sin Medico Receptor En Centro Publico,0017
12,Sin Familiares,0020
11,Retorno Cancelado,0016
10,Proveedor No Disponible,0001
9,Programado Cancelado,0009
8,Paciente Fuera Del Domicilio,0015
7,No Se Logra Contacto,0007
6,Negativa De Traslado,0011
5,Inseguridad En La Zona,0018
4,Imposibilidad De Acceso,0008
3,Fuera Del Area De Cobertura,0014
2,Carga Por Error,0002
1,Cancelado Por Paciente,0010
