id,code,term_es,desc_es,icd10_category,icd10_block,icd10_chapter
268,T79.4,Choque traumático,Shock traumático,1540,244,19
267,T78.40,Alergia,Alergia no especificada,1539,243,19
266,T78.2,Choque anafiláctico,"Shock anafiláctico, no especificado",1539,243,19
265,T75.4,Choque eléctrico,Electrocución,1537,243,19
264,T75.1,Ahogamiento (no fatal),Efectos no especificados de ahogamiento y sumersión no fatal,1537,243,19
263,T75.0,Choque por rayo,Efectos de rayo,1537,243,19
262,T74.9,Maltrato a niño | adulto,"Malos tratos no especificados, confirmados",1536,243,19
261,T73.3,Agotamiento por esfuerzo excesivo,Agotamiento por (debido a) esfuerzo excesivo,1535,243,19
260,T73.2,Agotamiento por exposición a la intemperie,Agotamiento por (debido a) exposición,1535,243,19
259,T73.1,Privación de agua,Deprivación de agua,1535,243,19
258,T73.0,Privación de alimento,Hambre (ayuno),1535,243,19
257,T71.9,Asfixia por alimento o cuerpo extraño,Asfixia por (debida a) causa no especificada,1534,243,19
256,T70.9,Efecto de cambio de presión,"Efecto de presión del aire y presión de agua, no especificado",1533,243,19
255,T69.9,Efecto de clima frío,"Efecto de baja temperatura, no especificada",1532,243,19
254,T68,Hipotermia | descenso de la temperatura corporal,Hipotermia,,243,19
253,T67.9,Efecto de calor excesivo,"Efecto de calor y luz, no especificado",1530,243,19
252,T66,Exposición a fuertes dosis de radiación ionizante,"Síndrome de irradiación, no especificado",,243,19
251,T65.9,Envenenamiento,Efecto tóxico de sustancia no especificada,1528,242,19
250,T63.9,Envenenamiento por contacto animal venenoso,Efecto tóxico de contacto con animal venenoso no especificado,1526,242,19
249,T62.9,Envenenamiento por alimentos,Efecto tóxico de sustancia nociva ingerida como alimento no especificada,1525,242,19
248,T61.9,Intoxicación por mariscos,Efecto tóxico de marisco no especificado,1524,242,19
247,T60.9,Intoxicación por pesticida,Efecto tóxico de plaguicida (pesticida) no especificado,1523,242,19
246,T59.9,Intoxicación por gases | humos | vapores,"Efecto tóxico de gases, humos y vapores no especificados",1522,242,19
245,T58.9,Intoxicación por monóxido de carbono,Efecto tóxico de monóxido de carbono de fuente no especificada,1521,242,19
244,T55,Intoxicación por detergentes,Efecto tóxico de jabones y detergentes,,242,19
243,T54.9,Intoxicación por sustancia corrosiva,Efecto tóxico de sustancia corrosiva no especificado,1517,242,19
242,T52.9,Intoxicación por disolvente,Efecto tóxico de disolvente orgánico no especificado,1515,242,19
241,T51.9,Intoxicación por alcohol,Efecto tóxico de alcohol no especificado,1514,242,19
240,T50.9,Envenenamiento por medicamento,"Envenenamiento, efecto adverso e infradosificación por otros fármacos, medicamentos y sustancias biológicas y los no especificados",1513,241,19
239,T30.0,Quemadura,Quemadura de región anatómica no especificado de grado no especificado,1494,239,19
238,T28.0,Quemadura en boca | faringe,Quemadura de boca y faringe,1493,238,19
237,T27.0,Quemadura en laringe | traquea,Quemadura de laringe y tráquea,1492,238,19
236,T26.0,Quemadura en párpado,Quemadura de párpado y área periocular,1491,238,19
235,T25.0,Quemadura en tobillo | pie,Quemadura de grado no especificado de tobillo y pie,1490,237,19
234,T24.0,Quemadura en pierna,"Quemadura de grado no especificado de extremidad inferior, excepto tobillo y pie",1489,237,19
233,T23.0,Quemadura en muñeca | mano,Quemadura de grado no especificado de muñeca y mano,1488,237,19
232,T22.0,Quemadura en hombro | brazo,"Quemadura de grado no especificado del hombro y extremidad superior, excepto muñeca y mano",1487,237,19
231,T21.0,Quemadura en tronco,Quemadura de grado no especificado de tronco,1486,237,19
230,T20.0,Quemadura en cabeza | cara | cuello,"Quemadura de grado no especificado de cabeza, cara y cuello",1485,237,19
229,T19.9,Cuerpo extraño en tracto genitourinario,"Cuerpo extraño en tracto genitourinario, parte no especificada",1484,235,19
228,T18.9,Cuerpo extraño en tubo digestivo,"Cuerpo extraño en tubo digestivo, parte no especificada",1483,235,19
227,T17.9,Cuerpo extraño en vías respiratorias,"Cuerpo extraño en vías respiratorias, parte no especificada",1482,235,19
226,T16.9,Cuerpo extraño en oído,"Cuerpo extraño en oído, oído no especificado",1481,235,19
225,T15.9,Cuerpo extraño en la parte externa del ojo,"Cuerpo extraño en parte externa del ojo, parte no especificada",1480,235,19
224,T14.91,Intento de suicidio,Intento de suicidio,1479,234,19
223,T07,Politraumatismo,Traumatismos múltiples no especificados,,233,19
222,S99.9,Traumatismo de tobillo | pie,Traumatismo no especificado de tobillo y pie,1477,231,19
221,S98,Amputación traumática de tobillo | pie,Amputación traumática de tobillo y pie,,231,19
220,S93,Luxación | esguince de tobillo | pie,"Luxación y esguince de articulaciones y ligamentos a nivel de tobillo, pie y dedo(s) del pie",,231,19
219,S92,Fractura de tobillo | dedos del pie,"Fractura de pie y dedos del pie, excepto tobillo",,231,19
218,S91,Herida abierta de tobillo | pie,"Herida abierta de tobillo, pie y dedos de los pies",,231,19
217,S89.9,Traumatismo de pierna,Traumatismo no especificado de pierna,1467,230,19
216,S88,Amputación traumática de pierna,Amputación traumática de pierna,,230,19
215,S83,Luxación | esguince de pierna,Luxación y esguince de articulaciones y ligamentos de rodilla,,230,19
214,S82,Fractura de pierna | tobillo,"Fractura de pierna, incluyendo tobillo",,230,19
213,S81,Herida abierta de pierna,Herida abierta de rodilla y pierna,,230,19
212,S79.9,Traumatismo de cadera | muslo,Traumatismo no especificado de cadera y muslo,1457,229,19
211,S78,Amputación traumática de cadera | muslo,Amputación traumática de cadera y muslo,,229,19
210,S73,Luxación | esguince de cadera y muslo,Luxación y esguince de articulación y ligamentos de cadera,,229,19
209,S72,Fractura de fémur,Fractura de fémur,,229,19
208,S71,Herida abierta de cadera | muslo,Herida abierta de cadera y muslo,,229,19
207,S69.9,Traumatismo de mano(s),"Traumatismo no especificado de muñeca, mano y dedo(s) de la mano",1447,228,19
206,S68,Amputación traumática de mano(s),"Amputación traumática de muñeca, mano y dedos de la mano",,228,19
205,S63,Luxación | esguince de mano(s),Luxación y esguince de articulaciones y ligamentos a nivel de muñeca y mano,,228,19
204,S62,Fractura de muñeca | mano,Fractura a nivel de muñeca y mano,,228,19
203,S61,Herida abierta de mano(s),"Herida abierta de muñeca, mano y dedos de la mano",,228,19
202,S59.9,Traumatismo de codo | antebrazo,Traumatismo no especificado de codo y antebrazo,1437,227,19
201,S58,Amputación traumática de codo | antebrazo,Amputación traumática de codo y antebrazo,,227,19
200,S53,Luxación | esguince de codo | antebrazo,Luxación y esguince de articulaciones y ligamentos de codo,,227,19
199,S52,Fractura de antebrazo,Fractura de antebrazo,,227,19
198,S51,Herida abierta de codo | antebrazo,Herida abierta de codo y antebrazo,,227,19
197,S49.9,Traumatismo de hombro | brazo,Traumatismo no especificado del hombro y brazo,1427,226,19
196,S48,Amputación traumática de hombro | brazo,Amputación traumática del hombro y brazo,,226,19
195,S43,Luxación | esguince de hombro | brazo,Luxación y esguince de articulaciones y ligamentos de cintura escapular,,226,19
194,S42,Fractura de hombro | brazo,Fractura del hombro y brazo,,226,19
193,S39.9,Traumatismo de abdomen | pelvis | genitales externos,"Traumatismo no especificado de abdomen, parte inferior de la espalda, pelvis y genitales externos",1417,225,19
192,S38,Amputación traumática en abdomen | pelvis | genitales externos,"Lesión por aplastamiento y amputación traumática de abdomen, parte inferior de la espalda, pelvis y genitales externos",,225,19
191,S33,Luxación | esguince de zona lumbar | pelvis,Luxación y esguince de articulaciones y ligamentos de columna lumbar y pelvis,,225,19
190,S32,Fractura de columna lumbar | pelvis,Fractura de columna lumbar y pelvis,,225,19
189,S31,Herida abierta de abdomen | pelvis | genitales externos,"Herida abierta de abdomen, parte inferior de la espalda, pelvis y genitales externos",,225,19
188,S29.9,Traumatismo del tórax,Traumatismo no especificado del tórax,1407,224,19
187,S28,Amputación traumática de parte del tórax,"Lesión por aplastamiento del tórax, y amputación traumática de parte del tórax",,224,19
186,S23,Luxación | esguince del tórax,Luxación y esguince de articulaciones y ligamentos del tórax,,224,19
185,S22,Fractura de costilla(s) | esternón | columna dorsal,"Fractura de costilla(s), esternón y columna dorsal",,224,19
184,S21.9,Herida abierta del tórax,Herida abierta de parte no especificada del tórax,1399,224,19
183,S19.9,Traumatismo del cuello,Traumatismo no especificado del cuello,1397,223,19
182,S13,Luxación | esguince del cuello,Luxación y esguince de articulaciones y ligamentos a nivel del cuello,,223,19
181,S12,Fractura de cérvical | cuello,Fractura de vértebra cervical y otras partes del cuello,,223,19
180,S11.9,Herida abierta del cuello,Herida abierta de parte no especificada del cuello,1390,223,19
179,S09.9,Traumatismo de cabeza | cara,Traumatismo no especificado de cara y cabeza,1388,222,19
178,S08,Amputación traumática de parte de la cabeza,Avulsión y amputación traumática de parte de la cabeza,,222,19
177,S03,Luxación | esguince de cabeza,Luxación y esguince de articulaciones y ligamentos de la cabeza,,222,19
176,S02,Fractura de cabeza | cara,Fractura de cráneo y huesos de la cara,,222,19
175,S01.9,Herida abierta de cabeza | cara,Herida abierta de parte no especificada de la cabeza,1380,222,19
174,O80,Parto,Admisión para el parto a término no complicado,,182,15
173,O20.0,Amenaza de aborto,Amenaza de aborto,1087,179,15
172,O07.4,Intento fallido de aborto,Intento fallido de interrupción del embarazo sin complicaciones,1077,176,15
171,O03.9,Aborto espontáneo,Aborto espontáneo completo o no especificado sin complicación,1075,176,15
170,N94.6,Dismenorrea,"Dismenorrea, no especificada",1066,174,14
169,N93.9,Hemorragia vaginal y uterina anormal,"Hemorragia vaginal y uterina anormal, no especificada",1065,174,14
168,N93.1,Sangrado vaginal prepuberal,Sangrado vaginal prepuberal,1065,174,14
167,N73.9,Enfermedad inflamatoria pélvica femenina,"Enfermedad inflamatoria pélvica femenina, no especificada",1047,173,14
166,N50.81,Dolor testicular,Dolor testicular,1034,171,14
165,N39.0,Infección urinaria,"Infección de tracto urinario, localización no especificada",1023,170,14
164,N34.1,Uretritis,Uretritis inespecífica,1019,170,14
163,N30.9,Cistitis,"Cistitis, no especificados",1015,170,14
162,N23,Cólico renal | nefrítico,Cólico renal no especificado,,168,14
161,N17.9,Insuficiencia renal,"Fallo renal agudo, no especificado",1003,167,14
160,N15.9,Infección del riñón,"Enfermedad túbulo-intersticial renal, no especificada",1001,166,14
159,M93.9,Osteocondritis,Osteocondropatía no especificada,981,160,13
158,M79.606,Dolor en extremidad inferior,Dolor en extremidad inferior no especificada,968,156,13
157,M79.603,Dolor en extremidad superior,Dolor en extremidad superior no especificada,968,156,13
156,M77.9,Tendinitis,"Entesopatía, no especificada",967,156,13
155,M71.9,Bursitis,"Bursopatía, no especificada",963,156,13
154,M54.9,Dorsalgia | Dolor de espalda,Dorsalgia no especificada,954,152,13
153,M54.5,Lumbalgia | Dolor en la parte inferior de la espalda,Dolor en la parte inferior de la espalda,954,152,13
152,M54.3,Ciatalgia | Dolor desde la espalda baja hasta las piernas,Ciática,954,152,13
151,M54.2,Cervicalgia | Dolor de cuello,Cervicalgia,954,152,13
150,M25.50,Artralgia | Dolor en las articulaciones,Dolor en articulación no especificada,932,146,13
149,M13,Artritis | Inflamación en las articulaciones,Otras artritis,,144,13
148,L98.9,Lesión dermatológica,"Trastorno de la piel y del tejido subcutáneo, no especificado",906,140,12
147,L89.9,Escara,Úlcera por presión en sitio no especificado,898,140,12
146,L89.15,Escara sacra,Úlcera por presión en región sacra,898,140,12
145,L30.9,Dermatitis,"Dermatitis, no especificada",856,134,12
144,L25.9,Dermatitis de contacto,"Dermatitis de contacto no especificada, causa no especificada",851,134,12
143,L23.9,Dermatitis alérgica,"Dermatitis alérgica de contacto, de causa no especificada",849,134,12
142,L20.9,Dermatitis atópica,"Dermatitis atópica, no especificada",846,134,12
141,L08.9,Infección local de piel y tejido subcutáneo,"Infección local de la piel y del tejido subcutáneo, no especificada",840,132,12
140,L08.0,Piodermitis | piodermatitis,Pioderma,840,132,12
139,L03.9,Celulitis aguda,"Celulitis y linfangitis aguda, no especificada",837,132,12
138,L03.3,Celulitis aguda de tronco,Celulitis y linfangitis aguda de tronco,837,132,12
137,L03.2,Celulitis aguda de cara y el cuello,Celulitis y linfangitis aguda de cara y el cuello,837,132,12
136,L03.1,Celulitis aguda de extremidades,Celulitis y linfangitis aguda de otras partes de las extremidades,837,132,12
135,L03.0,Celulitis aguda de dedos,Celulitis y linfangitis aguda de dedos de la mano y del pie,837,132,12
134,K92.2,Hemorragia gastrointestinal | digestiva,"Hemorragia gastrointestinal, no especificada",831,131,11
133,K80.5,Cálculo de conducto biliar,Cálculo de conducto biliar sin colangitis ni colecistitis,822,130,11
132,K73.9,Hepatitis crónica,"Hepatitis crónica, no especificada",817,129,11
131,K72.9,Insuficiencia hepática,"Insuficiencia hepática, no especificada",816,129,11
130,K72.0,Hepatitis aguda,Insuficiencia hepática aguda o subaguda,816,129,11
129,K64.9,Hemorroides,Hemorroides no especificadas,809,127,11
128,K62.5,Hemorragia de ano y recto,Hemorragia de ano y recto,807,127,11
127,K59.1,Diarrea crónica no infecciosa,Diarrea funcional,804,127,11
126,K59.00,Estreñimiento,"Estreñimiento, no especificado",804,127,11
125,K58,Intestino | colon irritable,Síndrome de intestino irritable,,127,11
124,K51.9,Colitis no infecciosa,"Colitis ulcerosa, no especificada",798,126,11
123,K46.9,Hernia abdominal,Hernia abdominal no especificada sin obstrucción ni gangrena,796,125,11
122,K42,Hernia umbilical,Hernia umbilical,,125,11
121,K40,Hernia inguinal,Hernia inguinal,,125,11
120,K35.80,Apendicitis aguda,Apendicitis aguda no especificada,786,124,11
119,K30,Dispepsia | indigestión,Dispepsia funcional,,123,11
118,K29.5,Gastritis crónica,Gastritis crónica no especificada,783,123,11
117,K29.0,Gastritis aguda,Gastritis aguda,783,123,11
116,K14.9,Glosopatía,"Enfermedad de lengua, no especificada",774,122,11
115,K08.89,Odontalgia | dolor de muelas,Otros trastornos especificados de dientes y estructuras de soporte,769,122,11
114,K05.0,Gingivitis aguda,Gingivitis aguda,767,122,11
113,J96.9,Insuficiencia respiratoria,Insuficiencia respiratoria no especificada,759,121,10
112,J90,Derrame pleural,"Derrame pleural, no clasificable bajo otro concepto",,119,10
111,J80,Dificultad respiratoria,Síndrome de dificultad respiratoria [distrés respiratorio],,117,10
110,J45.901,Crisis asmática,Asma no especificada con exacerbación (aguda),734,115,10
109,J45.9,Asma,Otros tipos de asma y las no especificadas,734,115,10
108,J44.9,EPOC,"Enfermedad pulmonar obstructiva crónica, no especificada",733,115,10
107,J44.1,EPOC exacerbado,Enfermedad pulmonar obstructiva crónica con exacerbación (aguda),733,115,10
106,J35.01,Amigdalitis crónica,Amigdalitis crónica,724,114,10
105,J32.9,Sinusitis crónica,"Sinusitis crónica, no especificada",721,114,10
104,J30.9,Rinitis  alérgica,"Rinitis alérgica, no especificada",719,114,10
103,J22,Infección respiratoria inferior,"Infección aguda del tracto respiratorio inferior, no especificada",,113,10
102,J20.9,Bronquitis aguda,"Bronquitis aguda, no especificada",716,113,10
101,J18.9,Neumonía,"Neumonía, microorganismo no especificado",715,112,10
100,J11,Gripe,Gripe debida a virus de la gripe no identificado,,112,10
99,J06.9,Infección respiratoria superior,"Infección respiratoria aguda del tracto respiratorio superior, no especificada",705,111,10
98,J06.0,Laringofaringitis aguda,Laringofaringitis aguda,705,111,10
97,J04.0,Laringitis aguda,Laringitis aguda,703,111,10
96,J03.9,Amigdalitis aguda,"Amigdalitis aguda, no especificada",702,111,10
95,J02.9,Faringitis aguda,"Faringitis aguda, no especificada",701,111,10
94,J01.9,Sinusitis aguda,"Sinusitis aguda, no especificada",700,111,10
93,J00,Resfriado común,Nasofaringitis aguda [resfriado común],,111,10
92,I95.9,Hipotensión,"Hipotensión, no especificada",695,110,9
91,I87.2,Insuficiencia venosa,Insuficiencia venosa (crónica) (periférica),692,109,9
90,I86.1,Várices escrotales,Varices escrotales,691,109,9
89,I83.9,Várices,Venas varicosas asintomáticas de extremidades inferiores,689,109,9
88,I82.9,Trombosis de vena,Embolia y trombosis de vena no especificada,688,109,9
87,I80.9,Tromboflebitis,Flebitis y tromboflebitis de localización no especificada,686,109,9
86,I74.9,Embolia arterial,Embolia y trombosis de arteria no especificada,680,108,9
85,I67.9,Enfermedad cerebrovascular,"Enfermedad cerebrovascular, no especificada",673,107,9
84,I63.9,"Accidente cerebrovascular, ACV","Infarto cerebral, no especificado",670,107,9
83,I51.9,Cardiopatía,"Enfermedad cardiaca, no especificada",665,106,9
82,I50.9,Insuficiencia cardíaca,"Insuficiencia cardiaca, no especificada",664,106,9
81,I49.9,Arrítmia,"Arritmia cardiaca, no especificada",663,106,9
80,I46.9,Paro cardíaco,"Paro cardiaco, causa no especificada",660,106,9
79,I26.9,Embolia pulmonar,Embolia pulmonar sin cor pulmonale agudo,641,105,9
78,I25.9,Cardiopatía isquémica crónica,"Enfermedad isquémica crónica cardiaca, no especificada",640,104,9
77,I24.9,Cardiopatía isquémica aguda,Enfermedad isquémica aguda cardiaca no especificada,639,104,9
76,I20.9,Angina de Pecho,"Angina de pecho, no especificada",635,104,9
75,I16.9,Crisis hipertensiva,"Crisis hipertensiva, no especificada",634,103,9
74,I11.9,Hipertensión arterial con insuficiencia cardiaca,Enfermedad cardiaca hipertensiva sin insuficiencia cardiaca,630,103,9
73,I11.0,Hipertensión arterial con insuficiencia cardiaca,Enfermedad cardíaca hipertensiva con insuficiencia cardiaca,630,103,9
72,I11,Cardiopatía hipertensiva,Enfermedad cardiaca hipertensiva,,103,9
71,H92.09,Dolor de oídos,"Otalgia, oído no especificado",617,99,8
70,H91.90,Perdida temporal de audición,"Pérdida de audición no especificada, oído no especificado",616,99,8
69,H83.09,Laberintitis,"Laberintitis, oído no especificado",614,98,8
68,H82.9,Síndrome vertiginoso,"Síndromes vertiginosos en enfermedades clasificadas bajo otro concepto, oído no especificado",613,98,8
67,H81.31,Vértigo auditivo,Vértigo aural,612,98,8
66,H81.0,Vértigo de Ménière,Enfermedad de Ménière,612,98,8
65,H66.9,Otitis media,"Otitis media, no especificada",601,97,8
64,H60.9,Otitis externa,Otitis externa no especificada,597,96,8
63,H57.10,Dolor ocular,"Dolor ocular, ojo no especificado",595,94,7
62,H54.7,Pérdida temporal de la visión,Pérdida de visión no especificada,593,93,7
61,H53.9,Alteración visual,Alteraciones visuales no especificadas,592,93,7
60,H10.9,Conjuntivitis,Conjuntivitis no especificada,562,85,7
59,H01.00,Blefaritis,Blefaritis no especificada,558,84,7
58,H00.0,Orzuelo,Orzuelo (externo) (interno) del párpado,557,84,7
57,G93.3,Fatiga postviral,Síndrome de fatiga postviral,550,83,6
56,G89.4,Dolor crónico,Síndrome de dolor crónico,546,83,6
55,G80.9,Parálisis cerebral,"Parálisis cerebral, no especificada",542,82,6
54,G58.0,Neuritis o neuropatía intercostal,Neuropatía intercostal,530,79,6
53,G51.0,Parálisis facial,Parálisis de Bell,523,79,6
52,G50.0,Neuralgia del trigémino,Neuralgia del trigémino,522,79,6
51,G47.9,"Trastorno del sueño, por enfermedad","Trastornos del sueño, no especificados",521,78,6
50,G45.9,Isquemia transitoria,"Accidente isquémico cerebral transitorio, no especificado",519,78,6
49,G44.2,Cefalea tensional,Cefalea tensional,518,78,6
48,G43.9,Migraña,"Migraña, no especificada",517,78,6
47,G40.9,Epilepsia,"Epilepsia, tipo no especificado",516,78,6
46,G30.9,Enfermedad de Alzheimer,"Enfermedad de Alzheimer, no especificada",510,76,6
45,F52.9,Disfunción sexual,Disfunción sexual no especificada no debida a sustancia ni afección fisiológica conocida,458,67,5
44,F51.9,"Trastorno del sueño, no orgánico","Trastorno del sueño no especificado, no debido a sustancia ni afección fisiológica conocida",457,67,5
43,F50.9,Trastorno de conducta alimentaria,"Trastorno de la conducta alimentaria, no especificado",456,67,5
42,F48.9,Estado de neurosis,"Trastorno mental no psicótico, no especificado",455,66,5
41,F43.9,Crisis de estrés grave,"Reacción a estrés grave, no especificada",452,66,5
40,F41.9,Crisis de ansiedad,"Trastorno de ansiedad, no especificado",450,66,5
39,F41.0,Ataque de pánico,Trastorno de pánico [ansiedad episódica paroxística] sin agorafobia,450,66,5
38,F39,Trastorno afectivo,"Trastorno del estado de ánimo [afectivo], no especificado",,65,5
37,F32.9,Depresión,"Trastorno depresivo mayor, episodio único, no especificado",445,65,5
36,F29,Psicosis,Psicosis no especificada no debida a sustancia o afección fisiológica conocidas,,64,5
35,F19.12,Intoxicación por drogas no específicas,"Abuso de otra sustancia psicoactiva, con intoxicación",434,63,5
34,F18.12,Intoxicación por inhalantes,"Abuso de inhalantes, con intoxicación",433,63,5
33,F16.12,Intoxicación por alucinógenos,"Abuso de alucinógenos, con intoxicación",431,63,5
32,F15.12,Intoxicación por estimulantes no específicos,"Abuso de otro estimulante, con intoxicación",430,63,5
31,F14.12,Intoxicación por cocaína,"Abuso de cocaína, con intoxicación",429,63,5
30,F13.12,"Intoxicación por sedantes, hipnóticos o ansiolíticos","Abuso de sedantes, hipnóticos o ansiolíticos, con intoxicación",428,63,5
29,F12.12,Intoxicación por cannabis,Abuso de cannabis con intoxicación,427,63,5
28,F11.12,Intoxicación por opiáceos,"Abuso de opiáceos, con intoxicación",426,63,5
27,F10.12,Intoxicación por alcohol,"Abuso de alcohol, con intoxicación",425,63,5
26,F07.9,Trastorno de personalidad,Trastorno de personalidad y del comportamiento no especificado debidos al afección fisiológica conocida,423,62,5
25,E86.0,Deshidratación,Deshidratación,413,60,4
24,E78.5,Dislipidemia | hiperlipidemia,"Hiperlipidemia, no especificada",407,60,4
23,E11.9,Diabetes mellitus estable compensada,Diabetes mellitus tipo 2 sin complicaciones,355,53,4
22,E11.8,Diabetes mellitus estable descompensada,Diabetes mellitus tipo 2 con complicaciones no especificadas,355,53,4
21,E11.65,Diabetes mellitus tipo 2 con hiperglucemia,Diabetes mellitus tipo 2 con hiperglucemia,355,53,4
20,E11.64,Diabetes mellitus tipo 2 con hipoglucemia,Diabetes mellitus tipo 2 con hipoglucemia,355,53,4
19,E10.9,Diabetes mellitus tipo 2 compensada,Diabetes mellitus tipo 1 sin complicaciones,354,53,4
18,E10.8,Diabetes mellitus tipo 1 descompensada,Diabetes mellitus tipo 1 con complicaciones no especificadas,354,53,4
17,E10.65,Diabetes mellitus tipo 1 con hiperglucemia,Diabetes mellitus tipo 1 con hiperglucemia,354,53,4
16,E10.64,Diabetes mellitus tipo 1 con hipoglucemia,Diabetes mellitus tipo 1 con hipoglucemia,354,53,4
15,D64.9,Anemia,"Anemia, no especificada",322,47,3
14,B82.9,Parasitosis intestinal,"Parasitosis intestinal, no especificada",153,18,1
13,B36.9,Micosis superficial,"Micosis superficial, no especificada",110,16,1
12,B26.9,Parotiditis | paperas,"Parotiditis, sin complicaciones",104,15,1
11,B20,VIH | Virus de inmunodeficiencia humana,Enfermedad por virus de la inmunodeficiencia humana [VIH],,14,1
10,B02.9,Herpes zóster,Herpes zóster sin complicaciones,88,11,1
9,B01.9,Varicela,Varicela sin complicaciones,87,11,1
8,B00.9,Herpes,"Infección debida a herpesvirus, no especificada",86,11,1
7,A92.9,Fiebre viral,"Fiebre viral transmitida por mosquito, no especificada",79,10,1
6,A91,Dengue hemorrágico,Fiebre del dengue hemorrágico,,10,1
5,A90,Dengue,Fiebre del dengue [dengue clásico],,10,1
4,A15.0,Tuberculosis pulmonar,Tuberculosis del pulmón,11,2,1
3,A09,Enteritis | Enterocolitis | Colitis infecciosa aguda,"Gastroenteritis y colitis infecciosas, no especificadas",,1,1
2,A07.1,Giardiasis,Giardiasis [lambliasis],8,1,1
1,A05.9,Intoxicación alimentaria bacteriana,"Intoxicación alimentaria bacteriana, no especificada",6,1,1
