id,question_text,description,question_type
222,"Del 1 al 10 siendo el 10 lo máximo, ¿el dolor es superior a 7 puntos?",,TRAUMATISMO EN EXTREMIDAD
221,¿Le parece que el miembro afectado se ve mas corto que el del otro lado?,,TRAUMATISMO EN EXTREMIDAD
220,¿Tiene dolor intenso que le dificulta mover la extremidad?,,TRAUMATISMO EN EXTREMIDAD
219,¿Tiene imposibilidad de movilizar la extremidad?,,TRAUMATISMO EN EXTREMIDAD
218,¿Existe algún hueso visible?,,TRAUMATISMO EN EXTREMIDAD
217,¿Observa alguna deformidad en el área donde recibió el golpe?,,TRAUMATISMO EN EXTREMIDAD
216,¿Hay salida de sangre por la nariz o por los oidos?,,TRAUMATISMO CRANEO
215,¿Ha presentado cambios en el comportamiento o la conducta después del golpe?,,TRAUMATISMO CRANEO
214,¿Le cuesta mover alguno de los miembros?,,TRAUMATISMO CRANEO
213,¿Perdió algo de la memoria después del golpe?,,TRAUMATISMO CRANEO
212,"Del 1 al 10 siendo el 10 lo máximo, ¿tiene dolor de cabeza superior a 7 puntos?",,TRAUMATISMO CRANEO
211,¿Ha vomitado después del golpe recibido?,,TRAUMATISMO CRANEO
210,"¿Le cuesta saber donde está, qué día es o se encuentra desorientado?",,TRAUMATISMO CRANEO
209,¿No logra abrir el ojo?,,TRASTORNO OCULAR
208,¿Tiene dolor intenso en el ojo?,,TRASTORNO OCULAR
207,¿Perdió la visión en el ojo?,,TRASTORNO OCULAR
206,¿Siente que tiene algún cuerpo extraño incrustado en el ojo?,,TRASTORNO OCULAR
205,¿Recibió algún golpe reciente en el ojo?,,TRASTORNO OCULAR
204,¿Las contracciones son en menos de 10 minutos?,,TRABAJO DE PARTO
203,¿Siente que el bebé no se ha movido en las últimas 12 horas?,,TRABAJO DE PARTO
202,¿Siente que no aguanta las ganas de evacuar?,,TRABAJO DE PARTO
201,¿Observa la cabeza del bebé si abre las piernas?,,TRABAJO DE PARTO
200,¿Siente la necesidad de pujar con cada contracción?,,TRABAJO DE PARTO
199,¿Al presentarse el ataque de tos tiene vómitos?,,TOS
198,"¿Se ""ahoga"" con la tos?",,TOS
197,¿Tiene los labios o los dedos de color azul?,,TOS
196,¿Siente dificultad para respirar o respira más de 30 veces en 1 minuto?,,TOS
195,¿Expulsa sangre cuando tose?,,TOS
194,¿Tiene dolor abdominal intenso o ha vomitado múltiples veces?,,SINDROME FEBRIL
193,¿Tiene dificultad para respirar?,,SINDROME FEBRIL
192,¿Esta orinando menos de lo normal?,,SINDROME FEBRIL
191,¿Ha tenido sangramiento por la nariz o por las encías?,,SINDROME FEBRIL
190,¿La fiebre es mayor de 40° y no mejora con el tratamiento?,,SINDROME FEBRIL
189,"¿Le cuesta saber donde está, qué día es o se encuentra desorientado?",,SINDROME FEBRIL
188,"Si es mujer, ¿se encuentra embarazada o sospecha estarlo?",,SINDROME EMÉTICO
187,¿Tiene más de 4 días sin evacuar?,,SINDROME EMÉTICO
186,¿Tiene dolor en el pecho?,,SINDROME EMÉTICO
185,¿Tiene dolor abdominal intenso?,,SINDROME EMÉTICO
184,¿Se han presentado más de 6 episodios en las últimas 3 horas?,,SINDROME EMÉTICO
183,¿Todo lo que ingiere lo ha vomitado posteriormente?,,SINDROME EMÉTICO
182,¿Al vomitar evidencia sangre en el vómito?,,SINDROME EMÉTICO
181,¿Tiene dolor intenso en la boca del estómago?,,SINDROME EMÉTICO
180,¿Ha utilizado algún medicamento para los vómitos y aun así persisten?,,SINDROME EMÉTICO
179,¿Se han presentado más de 6 episodios en las últimas 3 horas?,,SINDROME EMÉTICO
178,¿Tiene la boca muy seca y está orinando menos?,,SINDROME DIARREICO
177,¿Tiene dolor abdominal intenso?,,SINDROME DIARREICO
176,¿Ha tenido más de 10 evacuaciones en las últimas 24 horas?,,SINDROME DIARREICO
175,¿Las heces presentan sangre o son negras?,,SINDROME DIARREICO
174,¿Ha presentado vómitos y todo lo que come lo devuelve?,,SINDROME DIARREICO
173,"¿Le cuesta saber donde está, qué día es o se encuentra desorientado?",,SINDROME DIARREICO
172,¿El desmayo ocurrió mientras estaba en reposo o acostado?,,SINCOPE/LIPOTIMIA
171,¿Sufre de epilepsia o ha convulsionado anteriormente?,,SINCOPE/LIPOTIMIA
170,¿Tiene marcapasos o sufre de problemas del corazón?,,SINCOPE/LIPOTIMIA
169,¿Es la primera vez que le ocurre algo similar?,,SINCOPE/LIPOTIMIA
168,¿La pérdida de conocimiento duró más de 1 minuto?,,SINCOPE/LIPOTIMIA
167,¿Durante el episodio se orinó o evacuó?,,SINCOPE/LIPOTIMIA
166,"¿Le cuesta saber donde está, qué día es o se encuentra desorientado?",,SINCOPE/LIPOTIMIA
165,"¿Sufre de hemorroides y siente que se encuentran ""afuera""?",,SANGRADO RECTAL
164,¿Ha recibido algún traumatismo reciente a nivel del recto?,,SANGRADO RECTAL
163,"¿Tiene la piel fría, pálida y se encuentra con mucha sudoración?",,SANGRADO RECTAL
162,¿Observa salida de sangre por el recto de forma constante?,,SANGRADO RECTAL
161,¿Ha recibido algún golpe reciente en el abdomen?,,SANGRADO GENITAL FEM.
160,¿Utiliza algún anticoagulante o aspirina?,,SANGRADO GENITAL FEM.
159,¿Tiene dolor intenso en el vientre?,,SANGRADO GENITAL FEM.
158,"Si ya es menopáusica, ¿tiene más de 1 día con el sangrado o es abundante?",,SANGRADO GENITAL FEM.
157,¿El sangrado está por fuera de sus días normales de menstruación?,,SANGRADO GENITAL FEM.
156,¿Esta sangrando mucho más de lo que sangra regularmente con el periodo?,,SANGRADO GENITAL FEM.
155,¿Esta embarazada o hay sospecha de que pueda estarlo?,,SANGRADO GENITAL FEM.
154,¿Tiene más de 3 días con los síntomas sin que mejoren con tratamiento?,,RESFRIADO COMUN
153,¿Ha presentado fiebre? ¿Es superior a 40°?,,RESFRIADO COMUN
152,¿Tiene dolor de cabeza intenso que no mejora con medicamentos?,,RESFRIADO COMUN
151,¿La reacción inició después de utilizar un medicamento?,,REACCION ALERGICA
150,"¿Tiene la piel fría, pálida y se encuentra con mucha sudoración?",,REACCION ALERGICA
149,¿Hay inflamación alrededor de los ojos o dificultad para abrirlos?,,REACCION ALERGICA
148,¿Tiene las lesiones generalizadas en todo el cuerpo?,,REACCION ALERGICA
147,¿Ha tenido alguna vez alguna reacción alérgica grave a algo?,,REACCION ALERGICA
146,¿Tiene dificultad para respirar?,,REACCION ALERGICA
145,¿La quemadura es profunda y hay áreas color negro?,,QUEMADURA
144,¿Tiene dolor intenso en el área de la quemada?,,QUEMADURA
143,¿El tamaño de la quemadura es mayor que el tamaño de la palma de su mano?,,QUEMADURA
142,¿La quemadura fue con algún químico?,,QUEMADURA
141,"¿La quemada afecto la cara, genitales, manos o pies?",,QUEMADURA
140,¿El paciente es menor de 2 años o mayor de 70 años?,,QUEMADURA
139,¿Hay alguna parte de la cara que no pueda mover?,,POSIBLE ACV
138,¿Tiene imposibilidad para mantenerse de pie o caminar?,,POSIBLE ACV
137,¿Tiene dificultad para hablar o articular palabras?,,POSIBLE ACV
136,¿Le cuesta mover los brazos o las piernas?,,POSIBLE ACV
135,¿Tiene problemas para ver o perdió la visión después de que iniciaron los síntomas?,,POSIBLE ACV
134,"¿Le cuesta saber donde está, qué día es o se encuentra desorientado?",,POSIBLE ACV
133,¿Tiene pérdida de fuerza o pérdida de sensibilidad en algún miembro?,,POLITRAUMATISMO
132,"¿Tiene la piel fría, pálida y se encuentra con mucha sudoración?",,POLITRAUMATISMO
131,¿Presentó herida penetrante en el pecho o el abdomen?,,POLITRAUMATISMO
130,¿Tiene dolor en el abdomen o ha orinado con sangre?,,POLITRAUMATISMO
129,¿Siente dificultad para respirar?,,POLITRAUMATISMO
128,"¿Le cuesta saber donde está, qué día es o se encuentra desorientado?",,POLITRAUMATISMO
127,¿Presenta mareos de fuerte intensidad?,,OTALGIA
126,¿Ha recibido algún golpe en el oido recientemente?,,OTALGIA
125,¿Dejó de escuchar por ese oído?,,OTALGIA
124,"Del 1 al 10 siendo el 10 lo máximo, ¿el dolor es superior a 7 puntos?",,OTALGIA
123,¿Tiene salida de algún líquido a través del conducto auditivo?,,OTALGIA
122,¿Logra visualizar si hay sangre saliendo por el conducto auditivo?,,OTALGIA
121,¿Utiliza sonda para orinar?,,OLIGOANURIA
120,¿Tiene problemas del corazón y los pies inflamados?,,OLIGOANURIA
119,¿Siente dificultad para respirar?,,OLIGOANURIA
118,"¿Tiene diarrea, vómitos o fiebre muy elevada?",,OLIGOANURIA
117,¿Tiene la boca seca y no toma mucho líquido?,,OLIGOANURIA
116,¿Tiene algún problema conocido en la vegija o la próstata?,,OLIGOANURIA
115,¿Sufre o tiene antecedentes de insuficiencia renal?,,OLIGOANURIA
114,¿Tiene problemas para coordinar los movimientos de sus manos?,,MAREOS Y VERTIGO
113,¿Ha presentado dolor en el pecho?,,MAREOS Y VERTIGO
112,¿Tiene dificultad para hablar o articular palabras?,,MAREOS Y VERTIGO
111,¿Le cuesta mover los brazos o las piernas?,,MAREOS Y VERTIGO
110,¿Le cuesta mantenerse de pie porque considera que va a caerse?,,MAREOS Y VERTIGO
109,"¿Le cuesta saber donde está, qué día es o se encuentra desorientado?",,MAREOS Y VERTIGO
108,¿Tiene pérdida de la sensibilidad en las piernas?,,LUMBALGIA
107,"Del 1 al 10 siendo el 10 lo máximo, ¿el dolor es superior a 7 puntos?",,LUMBALGIA
106,¿Tiene imposibilidad de controlar la orina o las evacuaciones?,,LUMBALGIA
105,¿Sufre de osteoporosis severa?,,LUMBALGIA
104,¿Ha recibido un golpe reciente en la espalda?,,LUMBALGIA
103,¿Le cuesta mover las piernas?,,LUMBALGIA
102,¿Cuándo orina hay sangre?,,LUMBALGIA
101,¿Tiene zonas negras o con sangrado?,,LESIONES DERMATOLOGICAS
100,¿Hay presencia de vesículas o ampollas?,,LESIONES DERMATOLOGICAS
99,¿Siente dificultad para respirar?,,LESIONES DERMATOLOGICAS
98,¿Las lesiones que presentan se encuentran en todo el cuerpo?,,LESIONES DERMATOLOGICAS
97,¿Hay armas de fuego o armas blancas cerca?,,INTENCIÓN SUICIDA
96,¿Ha considerado recientemente las ganas de quitarse la vida?,,INTENCIÓN SUICIDA
95,¿Consume algún tipo de drogas o acaba de ingerir licor?,,INTENCIÓN SUICIDA
94,¿Tiene algún problema psiquiátrico o ha sido tratado por un psiquiatra?,,INTENCIÓN SUICIDA
93,¿En alguna oportunidad había tenido intención de quitarse la vida?,,INTENCIÓN SUICIDA
92,¿Le cuesta mucho tragar?,,INFECCION RESP. ALTA
91,¿Ha presentado fiebre? ¿Es superior a 40°?,,INFECCION RESP. ALTA
90,¿Tiene dificultad para respirar?,,INFECCION RESP. ALTA
89,Si la herida es en una extremidad: ¿Le cuesta mover la extremidad?,,HERIDA ABIERTA
88,¿La herida es de más de 5 cms de longuitud?,,HERIDA ABIERTA
87,"¿La herida es en la cara, cuello, tórax o abdomen?",,HERIDA ABIERTA
86,"¿Tiene la piel fría, pálida y se encuentra con mucha sudoración?",,HERIDA ABIERTA
85,¿Los bordes de la herida son irregulares y logra ver la grasa debajo de la piel?,,HERIDA ABIERTA
84,¿La herida fue causada por un objeto punzante o es profunda?,,HERIDA ABIERTA
83,¿Hay sangrado que no se detiene a pesar de hacer presión en la herida?,,HERIDA ABIERTA
82,¿Le han realizado algún procedimiento de urología recientemente?,,HEMATURIA
81,¿Utiliza algún anticoagulante o aspirina?,,HEMATURIA
80,¿Ha recibido algún golpe reciente en el abdomen?,,HEMATURIA
79,"¿Tiene la piel fría, pálida y se encuentra con mucha sudoración?",,HEMATURIA
78,"¿Tiene algun problema o lo han operado de la vejiga, la próstata o el riñón?",,HEMATURIA
77,¿Utiliza sonda para orinar?,,HEMATURIA
76,¿Tiene antecedentes de infarto o problemas cardíacos?,,DOLOR TORACICO
75,"¿Tiene la piel fría, pálida y se encuentra con mucha sudoración?",,DOLOR TORACICO
74,¿Siente dificultad para respirar?,,DOLOR TORACICO
73,¿El dolor tiene más de 20 minutos y no ha mejorado con el reposo?,,DOLOR TORACICO
72,"¿El dolor es opresivo, en el centro del pecho, de fuerte intensidad?",,DOLOR TORACICO
71,"¿Le cuesta saber donde está, qué día es o se encuentra desorientado?",,DOLOR TORACICO
70,"Del 1 al 10 siendo el 10 lo máximo, ¿el dolor es superior a 7 puntos?",,DOLOR EN MsIs
69,"¿Se encuentra encamado, fue operado recientemente o sufre de cáncer?",,DOLOR EN MsIs
68,¿Ha recibido un golpe reciente en la pierna?,,DOLOR EN MsIs
67,¿Tiene un dolor intenso y la extremidad esta aumentada de tamaño?,,DOLOR EN MsIs
66,¿Tiene la(s) pierna(s) mucho más frías que el resto del cuerpo?,,DOLOR EN MsIs
65,¿Tiene alguna herida reciente en la articulación?,,DOLOR ARTICULAR
64,"Del 1 al 10 siendo el 10 lo máximo, ¿el dolor es superior a 7 puntos?",,DOLOR ARTICULAR
63,"¿Sufre de lupus, artritis reumatoidea u otra enfermedad inmunológica?",,DOLOR ARTICULAR
62,¿Ha recibido un golpe reciente en la articulación?,,DOLOR ARTICULAR
61,¿Siente que la articulación está caliente y aumentada de volumen?,,DOLOR ARTICULAR
60,¿Le es imposible mover por completo la extremidad?,,DOLOR ARTICULAR
59,"¿Ha tenido vómitos?, Si es así, ¿han sido más de 5 episodios en 12 horas?",,DOLOR ABDOMINAL
58,¿Ha utilizado algún medicamento y el dolor no mejora?,,DOLOR ABDOMINAL
57,Si es mujer: ¿Se encuentra embarazada o hay sospecha de embarazo?,,DOLOR ABDOMINAL
56,¿Ha presentado vómitos con sangre o hay sangre en las heces o heces negras?,,DOLOR ABDOMINAL
55,"Del 1 al 10 siendo el 10 lo máximo, ¿el dolor es superior a 7 puntos?",,DOLOR ABDOMINAL
54,¿El dolor es muy intenso y presenta mucha sudoración y mareo?,,DOLOR ABDOMINAL
53,"¿Le cuesta saber donde está, qué día es o se encuentra desorientado?",,DOLOR ABDOMINAL
52,¿Utiliza sonda para orinar?,,DISURIA
51,¿Tiene más de 12 horas sin orinar?,,DISURIA
50,¿Tiene algún problema conocido en la vejiga o la próstata?,,DISURIA
49,¿Ha recibido algún golpe reciente en el abdomen?,,DISURIA
48,¿Lo han operado anteriormente del riñón?,,DISURIA
47,"¿Ha presentado fiebre?, Si es así, ¿tiene más de 2 días con fiebre?",,DISURIA
46,¿Tiene dolor en la espalda?,,DISURIA
45,¿Tiene dolor punzante en uno de los lados del pecho?,,DIFICULTAD RESPIRATORIA
44,¿Considera que esta respirando más de 30 veces en 1 minuto?,,DIFICULTAD RESPIRATORIA
43,¿Le cuesta mantener una conversación fluida porque le falta el aire?,,DIFICULTAD RESPIRATORIA
42,¿Tiene dolor opresivo en el pecho?,,DIFICULTAD RESPIRATORIA
41,¿Tiene los labios o los dedos de color azul?,,DIFICULTAD RESPIRATORIA
40,¿Tiene antecedentes de infarto o problemas cardíacos?,,DIFICULTAD RESPIRATORIA
39,"¿Le cuesta saber donde está, qué día es o se encuentra desorientado?",,DIFICULTAD RESPIRATORIA
38,"¿Tiene la piel fría, pálida y se encuentra con mucha sudoración?",,DIABETES DESCOMPENSADA
37,¿Siente dificultad para respirar o respira más rápido de lo normal?,,DIABETES DESCOMPENSADA
36,¿Ha presentado vómitos o dolor abdominal?,,DIABETES DESCOMPENSADA
35,Si se midió el azucar: ¿Es mayor de 350 o indica HI?,,DIABETES DESCOMPENSADA
34,Si se midió el azucar: ¿Es menor de 70 o indica LOW?,,DIABETES DESCOMPENSADA
33,"¿Le cuesta saber donde está, qué día es o se encuentra desorientado?",,DIABETES DESCOMPENSADA
32,Si se tomó la tensión: ¿Es mayor de 180/110 mmHg?,,CRISIS HIPERTENSIVA
31,¿Perdió la visión en algún ojo?,,CRISIS HIPERTENSIVA
30,¿Le cuesta mover alguna extremidad o le cuesta hablar?,,CRISIS HIPERTENSIVA
29,¿Siente dificultad para respirar?,,CRISIS HIPERTENSIVA
28,¿Tiene dolor en el pecho o siente opresión en el pecho?,,CRISIS HIPERTENSIVA
27,"¿Le cuesta saber donde está, qué día es o se encuentra desorientado?",,CRISIS HIPERTENSIVA
26,¿Siente dificultad para respirar?,,CRISIS DE ANSIEDAD
25,¿Ha presentado convulsiones o movimientos anormales en el cuerpo?,,CRISIS DE ANSIEDAD
24,¿Es la primera vez que le ocurre algo similar?,,CRISIS DE ANSIEDAD
23,"¿Le cuesta saber donde está, qué día es o se encuentra desorientado?",,CRISIS DE ANSIEDAD
22,¿Ha presentado mucho mareo con el dolor en el cuello?,,CERVICALGIA
21,¿Tiene pérdida de la sensibilidad en las manos?,,CERVICALGIA
20,¿Sufre de osteoporosis severa?,,CERVICALGIA
19,¿Ha recibido un golpe reciente en la cabeza o el cuello?,,CERVICALGIA
18,"Del 1 al 10 siendo el 10 lo máximo, ¿el dolor es superior a 7 puntos?",,CERVICALGIA
17,¿Tiene dificultad para mover los brazos o no los siente?,,CERVICALGIA
16,¿Es la primera vez que tiene un dolor como este y de esta intensidad?,,CEFALEA
15,"Del 1 al 10 siendo el 10 lo máximo, ¿el dolor es superior a 7 puntos?",,CEFALEA
14,¿Ha tenido vómitos bruscos?,,CEFALEA
13,¿Tiene dificultad para hablar o articular palabras?,,CEFALEA
12,¿Le cuesta mover los brazos o las piernas?,,CEFALEA
11,¿Tiene problemas para ver después de que empezó el dolor de cabeza?,,CEFALEA
10,"¿Le cuesta saber donde está, qué día es o se encuentra desorientado?",,CEFALEA
9,¿Ha utilizado los inhaladores de rescate y aun así persiste con mucha dificultad?,,ASMA/EPOC EXACERBADO
8,¿Tiene los labios o los dedos de color azul?,,ASMA/EPOC EXACERBADO
7,¿Le cuesta mantener una conversación fluida porque le falta el aire?,,ASMA/EPOC EXACERBADO
6,"¿Le cuesta saber donde está, qué día es o se encuentra desorientado?",,ASMA/EPOC EXACERBADO
5,¿Tiene marcapasos o sufre de problemas del corazón?,,ARRITMIA/PALPITACIONES
4,"¿Tiene la piel fría, pálida y se encuentra con mucha sudoración?",,ARRITMIA/PALPITACIONES
3,"¿Siente dormida la cara, el brazo o el cuello?",,ARRITMIA/PALPITACIONES
2,¿Siente dolor en el pecho o una opresión en el pecho?,,ARRITMIA/PALPITACIONES
1,"¿Le cuesta saber donde está, qué día es o se encuentra desorientado?",,ARRITMIA/PALPITACIONES
