id,affirmative_answer,calling_questionnaire,triage_question
26,1,22,150
25,1,22,146
24,1,21,176
23,1,20,15
22,1,19,108
21,1,19,105
20,1,19,103
19,1,18,144
18,1,18,141
13,1,15,144
12,1,15,140
11,1,14,144
10,1,13,16
9,1,12,15
7,1,10,29
5,1,7,151
4,1,7,148
2,1,4,54
